Bulk geocoding – R-ArcGIS Bridge
…
Step 2. Prepare the data

Similar to using find_address_candidates() the geocoding results return an ID that can be used to join back onto the original dataset. First, you will read in the dataset from a filepath using readr::read_csv() and then create a unique identifier with dplyr::mutate() and dplyr::row_number().

# Boston Yelp addresses
# Source: https://dataverse.harvard.edu/dataset.xhtml?persistentId=doi:10.7910/DVN/DMWCBT
fp <- "https://analysis-1.maps.arcgis.com/sharing/rest/content/items/0423768816b343b69d9a425b82351912/data"

library(dplyr)
restaurants <- readr::read_csv(fp) |>
  mutate(id = row_number())

restaurants

# A tibble: 2,664 × 28
   restaurant_name  restaurant_ID restaurant_address restaurant_tag rating price
   <chr>                    <dbl> <chr>              <chr>           <dbl> <chr>
 1 100% Delicias                2 635 Hyde Park Ave… Latin America…    2   $$   
 2 100% Delicias E…             3 660A Centre St,Ja… Dominican,Emp…    4   <NA> 
 3 107                          4 107 Salem St,Bost… Restaurants,     NA   <NA> 
 4 140 Supper Club              6 138 St James Ave,… Diners,           5   <NA> 
 5 163 Vietnamese …             7 66 Harrison Ave,B… Vietnamese,Co…    3.5 $    
 6 180 Cafe                     8 23 Edinboro St,Bo… Cafes,            4   <NA> 
 7 180 Restaurant …             9 174 Lincoln St,Bo… Restaurants,     NA   <NA> 
 8 224 Boston Stre…            11 224 Boston St,Dor… American (New…    4   $$   
 9 24 Hour Pizza D…            12 686 Morton St,Bos… Pizza,            1   $$$$ 
10 2Twenty2                    13 222 Friend St,Bos… Asian Fusion,…    3   <NA> 
# ℹ 2,654 more rows
# ℹ 22 more variables: review_number <dbl>, unique_reviewer <dbl>,
#   reviews_Jan_19 <dbl>, reviews_Feb_19 <dbl>, reviews_Mar_19 <dbl>,
#   reviews_Apr_19 <dbl>, reviews_May_19 <dbl>, reviews_Jun_19 <dbl>,
#   reviews_Jul_19 <dbl>, reviews_Aug_19 <dbl>, reviews_Jan_20 <dbl>,
#   reviews_Feb_20 <dbl>, reviews_Mar_20 <dbl>, reviews_Apr_20 <dbl>,
#   reviews_May_20 <dbl>, reviews_Jun_20 <dbl>, reviews_Jul_20 <dbl>, …
…
