Reverse Geocoding – R-ArcGIS Bridge
…
capitals

Simple feature collection with 50 features and 2 fields
Geometry type: POINT
Dimension:     XY
Bounding box:  xmin: -157.8574 ymin: 21.30744 xmax: -69.78169 ymax: 58.3016
Geodetic CRS:  WGS 84
# A tibble: 50 × 3
   name        description              geometry
 * <chr>       <chr>                 <POINT [°]>
 1 Alabama     Montgomery   (-86.30057 32.37772)
 2 Alaska      Juneau        (-134.4202 58.3016)
 3 Arizona     Phoenix       (-112.097 33.44814)
 4 Arkansas    Little Rock  (-92.28899 34.74661)
 5 California  Sacramento   (-121.4936 38.57667)
 6 Colorado    Denver       (-104.9849 39.73923)
 7 Connecticut Hartford<br>  (-72.6822 41.76405)
 8 Delaware    Dover        (-75.51972 39.15731)
 9 Hawaii      Honolulu     (-157.8574 21.30744)
10 Florida     Tallahassee   (-84.2813 30.43812)
# ℹ 40 more rows
…
Then, you can use dplyr (or base R via cbind()) to combine the two datasets. In this example, the geometry column from the reverse geocoding results is drops. This prevents dplyr from renaming the duplicate columns and preserves the sf class.

bind_cols(
  capitals,
  st_drop_geometry(geocoded)
)

Simple feature collection with 50 features and 24 fields
Geometry type: POINT
Dimension:     XY
Bounding box:  xmin: -157.8574 ymin: 21.30744 xmax: -69.78169 ymax: 58.3016
Geodetic CRS:  WGS 84
# A tibble: 50 × 25
   name  description             geometry match_addr      long_label short_label
 * <chr> <chr>                <POINT [°]> <chr>           <chr>      <chr>      
 1 Alab… Montgomery  (-86.30057 32.37772) Alabama State … Alabama S… Alabama St…
 2 Alas… Juneau       (-134.4202 58.3016) Juneau Post Of… Juneau Po… Juneau Pos…
 3 Ariz… Phoenix      (-112.097 33.44814) Arizona Capito… Arizona C… Arizona Ca…
 4 Arka… Little Rock (-92.28899 34.74661) Arkansas State… Arkansas … Arkansas S…
 5 Cali… Sacramento  (-121.4936 38.57667) California Sta… Californi… California…
 6 Colo… Denver      (-104.9849 39.73923) Credit Repair   Credit Re… Credit Rep…
 7 Conn… Hartford<b…  (-72.6822 41.76405) Connecticut St… Connectic… Connecticu…
 8 Dela… Dover       (-75.51972 39.15731) Delaware Senat… Delaware … Delaware S…
 9 Hawa… Honolulu    (-157.8574 21.30744) Eternal Flame … Eternal F… Eternal Fl…
10 Flor… Tallahassee  (-84.2813 30.43812) Florida Capito… Florida C… Florida Ca…
# ℹ 40 more rows
# ℹ 19 more variables: addr_type <chr>, type_field <chr>, place_name <chr>,
#   add_num <chr>, address <chr>, block <chr>, sector <chr>,
#   neighborhood <chr>, district <chr>, city <chr>, metro_area <chr>,
#   subregion <chr>, region <chr>, region_abbr <chr>, territory <chr>,
#   postal <chr>, postal_ext <chr>, country_name <chr>, country_code <chr>
…
capitals |>
  mutate(
    address_info = st_drop_geometry(
      reverse_geocode(geometry)
    )
  ) |>
  tidyr::unnest(address_info)

Simple feature collection with 50 features and 24 fields
Geometry type: POINT
Dimension:     XY
Bounding box:  xmin: -157.8574 ymin: 21.30744 xmax: -69.78169 ymax: 58.3016
Geodetic CRS:  WGS 84
# A tibble: 50 × 25
   name  description             geometry match_addr      long_label short_label
   <chr> <chr>                <POINT [°]> <chr>           <chr>      <chr>      
 1 Alab… Montgomery  (-86.30057 32.37772) Alabama State … Alabama S… Alabama St…
 2 Alas… Juneau       (-134.4202 58.3016) Juneau Post Of… Juneau Po… Juneau Pos…
 3 Ariz… Phoenix      (-112.097 33.44814) Arizona Capito… Arizona C… Arizona Ca…
 4 Arka… Little Rock (-92.28899 34.74661) Arkansas State… Arkansas … Arkansas S…
 5 Cali… Sacramento  (-121.4936 38.57667) California Sta… Californi… California…
 6 Colo… Denver      (-104.9849 39.73923) Credit Repair   Credit Re… Credit Rep…
 7 Conn… Hartford<b…  (-72.6822 41.76405) Connecticut St… Connectic… Connecticu…
 8 Dela… Dover       (-75.51972 39.15731) Delaware Senat… Delaware … Delaware S…
 9 Hawa… Honolulu    (-157.8574 21.30744) Eternal Flame … Eternal F… Eternal Fl…
10 Flor… Tallahassee  (-84.2813 30.43812) Florida Capito… Florida C… Florida Ca…
# ℹ 40 more rows
# ℹ 19 more variables: addr_type <chr>, type_field <chr>, place_name <chr>,
#   add_num <chr>, address <chr>, block <chr>, sector <chr>,
#   neighborhood <chr>, district <chr>, city <chr>, metro_area <chr>,
#   subregion <chr>, region <chr>, region_abbr <chr>, territory <chr>,
#   postal <chr>, postal_ext <chr>, country_name <chr>, country_code <chr>
…
